{
  "type": "minecraft:crafting_shaped",
  "pattern": [
    "rLg",
    " t "
  ],
  "key": {
    "r": {
      "tag": "forge:dyes/red"
    },
    "L": {
      "item": "minecraft:redstone_lamp"
    },
    "g": {
      "tag": "forge:dyes/green"
    },
    "t": {
      "item": "minecraft:comparator"
    }
  },
  "result": {
    "item": "weissrandom:itemcomparinglamp"
  }
}